Warning: no access to tty (Bad file descriptor).
Thus no job control in this shell.
Working directory is /home/users/tle/Thuc/parallelPCExp/synthetic/d0001c8p1500n2000
Running on host tizard21
Time is Thu Jun 5 02:45:05 CST 2014

R version 2.15.3 (2013-03-01) -- "Security Blanket"
Copyright (C) 2013 The R Foundation for Statistical Computing
ISBN 3-900051-07-0
Platform: x86_64-unknown-linux-gnu (64-bit)

R is free software and comes with ABSOLUTELY NO WARRANTY.
You are welcome to redistribute it under certain conditions.
Type 'license()' or 'licence()' for distribution details.

  Natural language support but running in an English locale

R is a collaborative project with many contributors.
Type 'contributors()' for more information and
'citation()' on how to cite R or R packages in publications.

Type 'demo()' for some demos, 'help()' for on-line help, or
'help.start()' for an HTML browser interface to help.
Type 'q()' to quit R.

> source("standardPC.R")
Loading required package: abind
Loading required package: sfsmisc
> source("parallelPC.R")
> 
> n=2000
> p=1500
> d=0.001
>   
> print(paste("Dataset:","p=",p,",n=",n, sep=""))
[1] "Dataset:p=1500,n=2000"
> 
> # create synthetic dataset
> print("Creating synthetic dataset...")
[1] "Creating synthetic dataset..."
> set.seed(50)
> rDAG=randomDAG(p, prob=d)
> data=rmvDAG(n, rDAG)
> suffStat=list(C=cor(data), n=nrow(data))
> 
> # run parallel
> print("Running Parallel PC...")
[1] "Running Parallel PC..."
> parallel <- pc_parallel(suffStat, indepTest=gaussCItest, p=ncol(data), skel.method="parallel", alpha=0.01)
Num CI Tests= 1138248 219793 73118 58375 36625 19600 10794 5527 1017 220 22 ,Total CI Tests= 1563339 ,Total Time= 417.942 
> 
> print("Cleaning up memory...")
[1] "Cleaning up memory..."
> print(gc(verbose=TRUE))
Garbage collection 727 = 593+39+95 (level 2) ... 
87.3 Mbytes of cons cells used (7%)
79.6 Mbytes of vectors used (14%)
           used (Mb) gc trigger   (Mb) max used   (Mb)
Ncells  1634530 87.3   22389184 1195.8 27986480 1494.7
Vcells 10427347 79.6   75458821  575.8 94323489  719.7
> print(gc(verbose=TRUE))
Garbage collection 728 = 593+39+96 (level 2) ... 
87.3 Mbytes of cons cells used (9%)
79.6 Mbytes of vectors used (17%)
           used (Mb) gc trigger  (Mb) max used   (Mb)
Ncells  1634520 87.3   17911347 956.6 27986480 1494.7
Vcells 10427335 79.6   60367056 460.6 94323489  719.7
> 
> # run original
> print("Running Original PC...")
[1] "Running Original PC..."
> original <- pc_standard(suffStat, indepTest=gaussCItest, p=ncol(data), skel.method="original", alpha=0.01)
Num CI Tests= 1138248 125364 65722 55241 36284 20090 11242 3943 1026 220 22 ,Total CI Tests= 1457402 ,Total Time= 287.888 
> 
> print("Cleaning up memory...")
[1] "Cleaning up memory..."
> print(gc(verbose=TRUE))
Garbage collection 866 = 723+44+99 (level 2) ... 
148.4 Mbytes of cons cells used (30%)
114.2 Mbytes of vectors used (31%)
           used  (Mb) gc trigger  (Mb) max used   (Mb)
Ncells  2777484 148.4    9170608 489.8 27986480 1494.7
Vcells 14967210 114.2   48293644 368.5 94323489  719.7
> 
> # run stable
> print("Running Stable PC...")
[1] "Running Stable PC..."
> stable <- pc_standard(suffStat, indepTest=gaussCItest, p=ncol(data), skel.method="stable", alpha=0.01)
Num CI Tests= 1138248 219793 73118 58375 36625 19600 10794 5527 1017 220 22 ,Total CI Tests= 1563339 ,Total Time= 291.572 
> 
> print("Cleaning up memory...")
[1] "Cleaning up memory..."
> print(gc(verbose=TRUE))
Garbage collection 1156 = 994+59+103 (level 2) ... 
209.3 Mbytes of cons cells used (43%)
148.9 Mbytes of vectors used (40%)
           used  (Mb) gc trigger  (Mb) max used   (Mb)
Ncells  3918125 209.3    9170608 489.8 27986480 1494.7
Vcells 19504030 148.9   48293644 368.5 94323489  719.7
> 
> # compare parallel & stable
> print("Parallel vs. Stable")
[1] "Parallel vs. Stable"
> print(compareGraphs(parallel@graph, stable@graph))
tpr fpr tdr 
  1   0   1 
> 
> # compare parallel & true
> print("Parallel vs. True")
[1] "Parallel vs. True"
> print(compareGraphs(parallel@graph, rDAG))
        tpr         fpr         tdr 
0.991803279 0.001598181 0.377600555 
> 
> # compare original & true
> print("Original vs. True")
[1] "Original vs. True"
> print(compareGraphs(original@graph, rDAG))
        tpr         fpr         tdr 
0.991803279 0.001657834 0.369027448 
> 
> # clean up memory
> print("Cleaning up memory...")
[1] "Cleaning up memory..."
> rm(rDAG)
> rm(suffStat)
> rm(original)
> rm(stable)
> rm(parallel)
> rm(data)
> print(gc(verbose=TRUE))
Garbage collection 1177 = 1007+63+107 (level 2) ... 
25.8 Mbytes of cons cells used (7%)
4.8 Mbytes of vectors used (2%)
         used (Mb) gc trigger  (Mb) max used   (Mb)
Ncells 481478 25.8    7336486 391.9 27986480 1494.7
Vcells 623682  4.8   38634915 294.8 94323489  719.7
> 


Resources Requested:
=========================================
mem=20gb
neednodes=1:ppn=8
nodes=1:ppn=8
vmem=20gb
walltime=04:00:00
=========================================

Resouces Used:
=========================================
cput=00:15:19
mem=13203328kb
vmem=14871088kb
walltime=00:19:05 
=========================================




Exit Status : [0]


