Loading required package: methods
[1] "Dataset:p=4500,n=2000"
[1] "Creating synthetic dataset..."
           used  (Mb) gc trigger  (Mb) max used  (Mb)
Ncells   650768  34.8    1166886  62.4  1144777  61.2
Vcells 21095030 161.0   72494281 553.1 90614070 691.4
[1] "Running Parallel PC..."
