Warning: no access to tty (Bad file descriptor).
Thus no job control in this shell.
Working directory is /home/users/tle/Thuc/parallelPCExp/synthetic/d0001c8p5000n2000
Running on host tizard08
Time is Thu Jun 5 08:14:34 CST 2014

R version 2.15.3 (2013-03-01) -- "Security Blanket"
Copyright (C) 2013 The R Foundation for Statistical Computing
ISBN 3-900051-07-0
Platform: x86_64-unknown-linux-gnu (64-bit)

R is free software and comes with ABSOLUTELY NO WARRANTY.
You are welcome to redistribute it under certain conditions.
Type 'license()' or 'licence()' for distribution details.

  Natural language support but running in an English locale

R is a collaborative project with many contributors.
Type 'contributors()' for more information and
'citation()' on how to cite R or R packages in publications.

Type 'demo()' for some demos, 'help()' for on-line help, or
'help.start()' for an HTML browser interface to help.
Type 'q()' to quit R.

> source("standardPC.R")
Loading required package: abind
Loading required package: sfsmisc
> source("parallelPC.R")
> 
> n=2000
> p=5000
> d=0.001
>   
> print(paste("Dataset:","p=",p,",n=",n, sep=""))
[1] "Dataset:p=5000,n=2000"
> 
> # create synthetic dataset
> print("Creating synthetic dataset...")
[1] "Creating synthetic dataset..."
> set.seed(50)
> rDAG=randomDAG(p, prob=d)
> data=rmvDAG(n, rDAG)
> suffStat=list(C=cor(data), n=nrow(data))
> 
> # run parallel
> print("Running Parallel PC...")
[1] "Running Parallel PC..."
> parallel <- pc_parallel(suffStat, indepTest=gaussCItest, p=ncol(data), skel.method="parallel", alpha=0.01)
Num CI Tests= 12804247 11230277 859856 524828 460006 340450 192410 97433 44190 17340 5522 1296 195 14 ,Total CI Tests= 26578064 ,Total Time= 3583.112 
> 
> print("Cleaning up memory...")
[1] "Cleaning up memory..."
> print(gc(verbose=TRUE))
Garbage collection 808 = 598+43+167 (level 2) ... 
701.3 Mbytes of cons cells used (31%)
657.3 Mbytes of vectors used (31%)
           used  (Mb) gc trigger   (Mb)  max used    (Mb)
Ncells 13130722 701.3   42088885 2247.8 313586643 16747.4
Vcells 86147767 657.3  274998579 2098.1 743955031  5676.0
> print(gc(verbose=TRUE))
Garbage collection 809 = 598+43+168 (level 2) ... 
701.3 Mbytes of cons cells used (31%)
657.3 Mbytes of vectors used (31%)
           used  (Mb) gc trigger   (Mb)  max used    (Mb)
Ncells 13130736 701.3   42088885 2247.8 313586643 16747.4
Vcells 86147795 657.3  274998579 2098.1 743955031  5676.0
> 
> # run original
> print("Running Original PC...")
[1] "Running Original PC..."
> original <- pc_standard(suffStat, indepTest=gaussCItest, p=ncol(data), skel.method="original", alpha=0.01)
Num CI Tests= 12804247 3461417 612012 493647 449184 326713 192239 97832 44289 17350 5522 1296 195 14 ,Total CI Tests= 18505957 ,Total Time= 5825.232 
> 
> print("Cleaning up memory...")
[1] "Cleaning up memory..."
> print(gc(verbose=TRUE))
Garbage collection 2590 = 2269+124+197 (level 2) ... 
1372.3 Mbytes of cons cells used (50%)
1041.8 Mbytes of vectors used (37%)
            used   (Mb) gc trigger   (Mb)  max used    (Mb)
Ncells  25695189 1372.3   51331706 2741.5 313586643 16747.4
Vcells 136549649 1041.8  369068546 2815.8 743955031  5676.0
> 
> # run stable
> print("Running Stable PC...")
[1] "Running Stable PC..."
> stable <- pc_standard(suffStat, indepTest=gaussCItest, p=ncol(data), skel.method="stable", alpha=0.01)
Num CI Tests= 12804247 11230277 859856 524828 460006 340450 192410 97433 44190 17340 5522 1296 195 14 ,Total CI Tests= 26578064 ,Total Time= 5856.624 
> 
> print("Cleaning up memory...")
[1] "Cleaning up memory..."
> print(gc(verbose=TRUE))
Garbage collection 4236 = 3815+201+220 (level 2) ... 
2043.2 Mbytes of cons cells used (58%)
1426.4 Mbytes of vectors used (42%)
            used   (Mb) gc trigger   (Mb)  max used    (Mb)
Ncells  38257144 2043.2   65734733 3510.7 313586643 16747.4
Vcells 186948127 1426.4  448949932 3425.3 743955031  5676.0
> 
> # compare parallel & stable
> print("Parallel vs. Stable")
[1] "Parallel vs. Stable"
> print(compareGraphs(parallel@graph, stable@graph))
tpr fpr tdr 
  1   0   1 
> 
> # compare parallel & true
> print("Parallel vs. True")
[1] "Parallel vs. True"
> print(compareGraphs(parallel@graph, rDAG))
         tpr          fpr          tdr 
0.9241198858 0.0001013225 0.9020897833 
> 
> # compare original & true
> print("Original vs. True")
[1] "Original vs. True"
> print(compareGraphs(original@graph, rDAG))
         tpr          fpr          tdr 
0.9246749128 0.0001086113 0.8958365340 
> 
> # clean up memory
> print("Cleaning up memory...")
[1] "Cleaning up memory..."
> rm(rDAG)
> rm(suffStat)
> rm(original)
> rm(stable)
> rm(parallel)
> rm(data)
> print(gc(verbose=TRUE))
Garbage collection 4265 = 3832+207+226 (level 2) ... 
25.8 Mbytes of cons cells used (1%)
4.8 Mbytes of vectors used (0%)
         used (Mb) gc trigger   (Mb)  max used    (Mb)
Ncells 481489 25.8   52587786 2808.5 313586643 16747.4
Vcells 623682  4.8  359159945 2740.2 743955031  5676.0
> 


Resources Requested:
=========================================
mem=110gb
neednodes=1:ppn=8
nodes=1:ppn=8
vmem=110gb
walltime=22:00:00
=========================================

Resouces Used:
=========================================
cput=04:27:30
mem=63306088kb
vmem=64912752kb
walltime=04:46:22 
=========================================




Exit Status : [0]


