[1] "Dataset:p=1000,n=10000"
[1] "Creating synthetic dataset..."
Note: no visible binding for global variable '.Data' 
Note: no visible binding for global variable '.Data' 
Note: no visible binding for global variable 'defaults' 
Note: no visible binding for global variable 'defaults' 
Note: no visible binding for global variable 'adjMat' 
[1] "Running Parallel PC..."
Note: no visible binding for global variable 'pcalg' 
Num CI Tests= 997909 108153087 683602 1400 311 18 ,Total CI Tests= 109836327 ,Total Time= 1705.913 
[1] "Memory used=49553512 B"
[1] "Cleaning up memory..."
           used  (Mb) gc trigger  (Mb) max used  (Mb)
Ncells  1682860  89.9   10798339 576.7 16872405 901.1
Vcells 15290981 116.7   45234004 345.2 70678132 539.3
[1] "Sleeping for 30s..."
[1] "Running Original PC..."
Num CI Tests= 997909 35142658 1825364 157070 91393 107279 117502 105088 63288 24887 7480 1716 234 14 ,Total CI Tests= 38641882 ,Total Time= 1469.444 
[1] "Memory used=48698768 B"
[1] "Cleaning up memory..."
           used  (Mb) gc trigger  (Mb) max used  (Mb)
Ncells  2193048 117.2    5528748 295.3 16872405 901.1
Vcells 17806947 135.9   45234004 345.2 70678132 539.3
[1] "Running Stable PC..."
Num CI Tests= 997909 108153087 683602 1400 311 18 ,Total CI Tests= 109836327 ,Total Time= 3598.742 
[1] "Memory used=48350192 B"
[1] "Cleaning up memory..."
           used  (Mb) gc trigger  (Mb) max used  (Mb)
Ncells  2698451 144.2    5528748 295.3 16872405 901.1
Vcells 20312677 155.0   45234004 345.2 70678132 539.3
[1] "Parallel vs. Stable"
tpr fpr tdr 
  1   0   1 
[1] "Parallel vs. True"
         tpr          fpr          tdr 
0.0018502590 0.0001326612 0.7773109244 
[1] "Original vs. True"
        tpr         fpr         tdr 
0.003020423 0.001168920 0.392717815 
[1] "Cleaning up memory..."
          used (Mb) gc trigger  (Mb) max used  (Mb)
Ncells  675722 36.1    5821809 311.0 16872405 901.1
Vcells 1396198 10.7   36187203 276.1 70678132 539.3
[1] "Sleeping for 30s..."
[1] "----------------------------------------"
[1] "Dataset:p=1500,n=10000"
[1] "Creating synthetic dataset..."
[1] "Running Parallel PC..."
Num CI Tests= 2248437 245147862 1130563 1203 457 174 56 8 ,Total CI Tests= 248528760 ,Total Time= 3863.902 
[1] "Memory used=108516376 B"
[1] "Cleaning up memory..."
           used  (Mb) gc trigger   (Mb)  max used   (Mb)
Ncells  2938853 157.0   19226754 1026.9  37552256 2005.6
Vcells 25869684 197.4   91681052  699.5 142644079 1088.3
[1] "Sleeping for 30s..."
[1] "Running Original PC..."
Num CI Tests= 2248437 58584783 3092803 557313 1005764 2574467 5750909 11329024 15012305 21845360 29024611 33400692 21487384 11619451 2617260 1209376 450585 132012 29279 4620 462 22 ,Total CI Tests= 221976919 ,Total Time= 29319.08 
[1] "Memory used=108647800 B"
[1] "Cleaning up memory..."
           used  (Mb) gc trigger  (Mb)  max used   (Mb)
Ncells  4073546 217.6    9844097 525.8  37552256 2005.6
Vcells 31507585 240.4   73344841 559.6 142644079 1088.3
[1] "Running Stable PC..."
Num CI Tests= 2248437 245147862 1130563 1203 457 174 56 8 ,Total CI Tests= 248528760 ,Total Time= 8317.723 
[1] "Memory used=108507288 B"
[1] "Cleaning up memory..."
           used  (Mb) gc trigger  (Mb)  max used   (Mb)
Ncells  5206212 278.1    9844097 525.8  37552256 2005.6
Vcells 37142111 283.4   73344841 559.6 142644079 1088.3
[1] "Parallel vs. Stable"
tpr fpr tdr 
  1   0   1 
[1] "Parallel vs. True"
         tpr          fpr          tdr 
7.436931e-04 7.335819e-05 7.167382e-01 
[1] "Original vs. True"
         tpr          fpr          tdr 
0.0013582419 0.0005390716 0.3860759494 
[1] "Cleaning up memory..."
          used (Mb) gc trigger  (Mb)  max used   (Mb)
Ncells  675722 36.1   11940940 637.8  37552256 2005.6
Vcells 1920486 14.7   64821349 494.6 142644079 1088.3
[1] "Sleeping for 30s..."
[1] "----------------------------------------"
[1] "Dataset:p=2000,n=10000"
[1] "Creating synthetic dataset..."
[1] "Running Parallel PC..."
Num CI Tests= 3995975 447244505 640364 1036 192 24 ,Total CI Tests= 451882096 ,Total Time= 7168.64 
[1] "Memory used=192645304 B"
[1] "Cleaning up memory..."
           used  (Mb) gc trigger   (Mb)  max used   (Mb)
Ncells  4696023 250.8   33139113 1769.9  64724832 3456.7
Vcells 38830661 296.3  157683954 1203.1 245590182 1873.8
[1] "Sleeping for 30s..."
[1] "Running Original PC..."
Num CI Tests= 3995975 70692927 1332148 175729 226055 392310 684906 777735 924753 551660 370601 229536 112944 43064 12255 2448 306 18 ,Total CI Tests= 80525370 ,Total Time= 3631.242 
[1] "Memory used=192782920 B"
[1] "Cleaning up memory..."
           used  (Mb) gc trigger  (Mb)  max used   (Mb)
Ncells  6708014 358.3   13573780 725.0  64724832 3456.7
Vcells 48844366 372.7  126147163 962.5 245590182 1873.8
[1] "Running Stable PC..."
Num CI Tests= 3995975 447244505 640364 1036 192 24 ,Total CI Tests= 451882096 ,Total Time= 15190.93 
[1] "Memory used=192637744 B"
[1] "Cleaning up memory..."
           used  (Mb) gc trigger  (Mb)  max used   (Mb)
Ncells  8717904 465.6   13573780 725.0  64724832 3456.7
Vcells 58854631 449.1  126147163 962.5 245590182 1873.8
[1] "Parallel vs. Stable"
tpr fpr tdr 
  1   0   1 
[1] "Parallel vs. True"
         tpr          fpr          tdr 
0.0004574440 0.0000375246 0.7530864198 
[1] "Original vs. True"
         tpr          fpr          tdr 
0.0008099008 0.0003008222 0.4024844720 
[1] "Cleaning up memory..."
          used (Mb) gc trigger   (Mb)  max used   (Mb)
Ncells  675722 36.1   21043117 1123.9  64724832 3456.7
Vcells 2969062 22.7  106027616  809.0 245590182 1873.8
[1] "Sleeping for 30s..."
[1] "----------------------------------------"
[1] "Dataset:p=2500,n=10000"
[1] "Creating synthetic dataset..."
[1] "Running Parallel PC..."
Num CI Tests= 6247367 751066870 705507 1239 390 108 7 ,Total CI Tests= 758021488 ,Total Time= 13379.57 
[1] "Memory used=300811024 B"
[1] "Cleaning up memory..."
           used  (Mb) gc trigger   (Mb)  max used   (Mb)
Ncells  6944230 370.9   52834851 2821.7 103193069 5511.2
Vcells 54431748 415.3  195117334 1488.7 304870610 2326.0
[1] "Sleeping for 30s..."
[1] "Running Original PC..."
Num CI Tests= 6247367 97023982 1812281 260188 377144 807694 1487961 2432160 3311423 3760859 3533400 2726232 1713959 868280 348840 108528 25194 4104 418 20 ,Total CI Tests= 126850034 ,Total Time= 7926.122 
[1] "Memory used=300965216 B"
[1] "Cleaning up memory..."
           used  (Mb) gc trigger   (Mb)  max used   (Mb)
Ncells 10083748 538.6   21641154 1155.8 103193069 5511.2
Vcells 70075551 534.7  156093867 1191.0 304870610 2326.0
[1] "Running Stable PC..."
