[1] "Dataset:p=3000,n=10000"
[1] "Creating synthetic dataset..."
Note: no visible binding for global variable '.Data' 
Note: no visible binding for global variable '.Data' 
Note: no visible binding for global variable 'defaults' 
Note: no visible binding for global variable 'defaults' 
Note: no visible binding for global variable 'adjMat' 
[1] "Running Parallel PC..."
Note: no visible binding for global variable 'pcalg' 
Num CI Tests= 8996954 1000558737 685993 244 30 ,Total CI Tests= 1010241958 ,Total Time= 23926.62 
[1] "Memory used=434146736 B"
[1] "Parallel vs. True"
         tpr          fpr          tdr 
1.688806e-04 1.556223e-05 7.307692e-01 
[1] "Cleaning up memory..."
          used (Mb) gc trigger   (Mb)  max used   (Mb)
Ncells  672678 36.0   77017781 4113.2 150425356 8033.6
Vcells 5057370 38.6  281083276 2144.5 439192031 3350.8
[1] "Sleeping for 30s..."
[1] "----------------------------------------"
[1] "Dataset:p=3500,n=10000"
[1] "Creating synthetic dataset..."
[1] "Running Parallel PC..."
