Warning: no access to tty (Bad file descriptor).
Thus no job control in this shell.
Working directory is /home/users/tle/Thuc/parallelPCExp/synthetic/d0001c4p4n8
Running on host tizard28
Time is Thu Jun 5 02:17:35 CST 2014

R version 2.15.3 (2013-03-01) -- "Security Blanket"
Copyright (C) 2013 The R Foundation for Statistical Computing
ISBN 3-900051-07-0
Platform: x86_64-unknown-linux-gnu (64-bit)

R is free software and comes with ABSOLUTELY NO WARRANTY.
You are welcome to redistribute it under certain conditions.
Type 'license()' or 'licence()' for distribution details.

  Natural language support but running in an English locale

R is a collaborative project with many contributors.
Type 'contributors()' for more information and
'citation()' on how to cite R or R packages in publications.

Type 'demo()' for some demos, 'help()' for on-line help, or
'help.start()' for an HTML browser interface to help.
Type 'q()' to quit R.

> source("standardPC.R")
Loading required package: abind
Loading required package: sfsmisc
> source("parallelPC.R")
> 
> n=8
> p=4
> d=0.001
>   
> print(paste("Dataset:","p=",p,",n=",n, sep=""))
[1] "Dataset:p=4,n=8"
> 
> # create synthetic dataset
> print("Creating synthetic dataset...")
[1] "Creating synthetic dataset..."
> set.seed(50)
> rDAG=randomDAG(p, prob=d)
> data=rmvDAG(n, rDAG)
> suffStat=list(C=cor(data), n=nrow(data))
> 
> # run parallel
> print("Running Parallel PC...")
[1] "Running Parallel PC..."
> parallel <- pc_parallel(suffStat, indepTest=gaussCItest, p=ncol(data), skel.method="parallel", alpha=0.01)
Num CI Tests= 6 ,Total CI Tests= 6 ,Total Time= 2.491 
> 
> print("Cleaning up memory...")
[1] "Cleaning up memory..."
> print(gc(verbose=TRUE))
Garbage collection 24 = 14+4+6 (level 2) ... 
25.5 Mbytes of cons cells used (71%)
4.8 Mbytes of vectors used (53%)
         used (Mb) gc trigger (Mb) max used (Mb)
Ncells 476852 25.5     667722 35.7   597831   32
Vcells 619059  4.8    1162592  8.9   905738    7
> print(gc(verbose=TRUE))
Garbage collection 25 = 14+4+7 (level 2) ... 
25.5 Mbytes of cons cells used (64%)
4.8 Mbytes of vectors used (53%)
         used (Mb) gc trigger (Mb) max used (Mb)
Ncells 476851 25.5     741108 39.6   597831   32
Vcells 619062  4.8    1162592  8.9   905738    7
> 
> # run original
> print("Running Original PC...")
[1] "Running Original PC..."
> original <- pc_standard(suffStat, indepTest=gaussCItest, p=ncol(data), skel.method="original", alpha=0.01)
Num CI Tests= 6 ,Total CI Tests= 6 ,Total Time= 0.001 
> 
> print("Cleaning up memory...")
[1] "Cleaning up memory..."
> print(gc(verbose=TRUE))
Garbage collection 26 = 14+4+8 (level 2) ... 
25.5 Mbytes of cons cells used (58%)
4.8 Mbytes of vectors used (53%)
         used (Mb) gc trigger (Mb) max used (Mb)
Ncells 477251 25.5     818163 43.7   597831   32
Vcells 619167  4.8    1162592  8.9   905738    7
> 
> # run stable
> print("Running Stable PC...")
[1] "Running Stable PC..."
> stable <- pc_standard(suffStat, indepTest=gaussCItest, p=ncol(data), skel.method="stable", alpha=0.01)
Num CI Tests= 6 ,Total CI Tests= 6 ,Total Time= 0.002 
> 
> print("Cleaning up memory...")
[1] "Cleaning up memory..."
> print(gc(verbose=TRUE))
Garbage collection 27 = 14+4+9 (level 2) ... 
25.5 Mbytes of cons cells used (58%)
4.8 Mbytes of vectors used (53%)
         used (Mb) gc trigger (Mb) max used (Mb)
Ncells 477347 25.5     818163 43.7   597831   32
Vcells 619235  4.8    1162592  8.9   905738    7
> 
> # compare parallel & stable
> print("Parallel vs. Stable")
[1] "Parallel vs. Stable"
> print(compareGraphs(parallel@graph, stable@graph))
tpr fpr tdr 
  0   0   1 
> 
> # compare parallel & true
> print("Parallel vs. True")
[1] "Parallel vs. True"
> print(compareGraphs(parallel@graph, rDAG))
tpr fpr tdr 
  0   0   1 
> 
> # compare original & true
> print("Original vs. True")
[1] "Original vs. True"
> print(compareGraphs(original@graph, rDAG))
tpr fpr tdr 
  0   0   1 
> 
> # clean up memory
> print("Cleaning up memory...")
[1] "Cleaning up memory..."
> rm(rDAG)
> rm(suffStat)
> rm(original)
> rm(stable)
> rm(parallel)
> rm(data)
> print(gc(verbose=TRUE))
Garbage collection 28 = 14+4+10 (level 2) ... 
25.6 Mbytes of cons cells used (58%)
4.8 Mbytes of vectors used (53%)
         used (Mb) gc trigger (Mb) max used (Mb)
Ncells 478306 25.6     818163 43.7   597831   32
Vcells 619615  4.8    1162592  8.9   905738    7
> 


Resources Requested:
=========================================
mem=1gb
neednodes=1:ppn=4
nodes=1:ppn=4
vmem=1gb
walltime=00:04:00
=========================================

Resouces Used:
=========================================
cput=00:00:01
mem=0kb
vmem=0kb
walltime=00:00:05 
=========================================




Exit Status : [0]


