Warning: no access to tty (Bad file descriptor).
Thus no job control in this shell.
Working directory is /home/users/tle/Thuc/parallelPCExp/synthetic/d0001c8p1000n2000
Running on host tizard21
Time is Thu Jun 5 02:30:03 CST 2014

R version 2.15.3 (2013-03-01) -- "Security Blanket"
Copyright (C) 2013 The R Foundation for Statistical Computing
ISBN 3-900051-07-0
Platform: x86_64-unknown-linux-gnu (64-bit)

R is free software and comes with ABSOLUTELY NO WARRANTY.
You are welcome to redistribute it under certain conditions.
Type 'license()' or 'licence()' for distribution details.

  Natural language support but running in an English locale

R is a collaborative project with many contributors.
Type 'contributors()' for more information and
'citation()' on how to cite R or R packages in publications.

Type 'demo()' for some demos, 'help()' for on-line help, or
'help.start()' for an HTML browser interface to help.
Type 'q()' to quit R.

> source("standardPC.R")
Loading required package: abind
Loading required package: sfsmisc
> source("parallelPC.R")
> 
> n=2000
> p=1000
> d=0.001
>   
> print(paste("Dataset:","p=",p,",n=",n, sep=""))
[1] "Dataset:p=1000,n=2000"
> 
> # create synthetic dataset
> print("Creating synthetic dataset...")
[1] "Creating synthetic dataset..."
> set.seed(50)
> rDAG=randomDAG(p, prob=d)
> data=rmvDAG(n, rDAG)
> suffStat=list(C=cor(data), n=nrow(data))
> 
> # run parallel
> print("Running Parallel PC...")
[1] "Running Parallel PC..."
> parallel <- pc_parallel(suffStat, indepTest=gaussCItest, p=ncol(data), skel.method="parallel", alpha=0.01)
Num CI Tests= 505320 71574 33509 24089 13573 4776 1456 288 27 ,Total CI Tests= 654612 ,Total Time= 165.753 
> 
> print("Cleaning up memory...")
[1] "Cleaning up memory..."
> print(gc(verbose=TRUE))
Garbage collection 517 = 412+32+73 (level 2) ... 
53.3 Mbytes of cons cells used (10%)
43.2 Mbytes of vectors used (16%)
          used (Mb) gc trigger  (Mb) max used  (Mb)
Ncells  997629 53.3   10437435 557.5 13046794 696.8
Vcells 5651547 43.2   36402241 277.8 45502714 347.2
> print(gc(verbose=TRUE))
Garbage collection 518 = 412+32+74 (level 2) ... 
53.3 Mbytes of cons cells used (12%)
43.2 Mbytes of vectors used (19%)
          used (Mb) gc trigger  (Mb) max used  (Mb)
Ncells  997619 53.3    8349948 446.0 13046794 696.8
Vcells 5651535 43.2   29121792 222.2 45502714 347.2
> 
> # run original
> print("Running Original PC...")
[1] "Running Original PC..."
> original <- pc_standard(suffStat, indepTest=gaussCItest, p=ncol(data), skel.method="original", alpha=0.01)
Num CI Tests= 505320 46349 30219 23482 13263 5403 1617 312 27 ,Total CI Tests= 625992 ,Total Time= 125.112 
> 
> print("Cleaning up memory...")
[1] "Cleaning up memory..."
> print(gc(verbose=TRUE))
Garbage collection 630 = 515+38+77 (level 2) ... 
80.7 Mbytes of cons cells used (35%)
58.6 Mbytes of vectors used (33%)
          used (Mb) gc trigger  (Mb) max used  (Mb)
Ncells 1509814 80.7    4275172 228.4 13046794 696.8
Vcells 7674698 58.6   23297433 177.8 45502714 347.2
> 
> # run stable
> print("Running Stable PC...")
[1] "Running Stable PC..."
> stable <- pc_standard(suffStat, indepTest=gaussCItest, p=ncol(data), skel.method="stable", alpha=0.01)
Num CI Tests= 505320 71574 33509 24089 13573 4776 1456 288 27 ,Total CI Tests= 654612 ,Total Time= 114.801 
> 
> print("Cleaning up memory...")
[1] "Cleaning up memory..."
> print(gc(verbose=TRUE))
Garbage collection 846 = 716+50+80 (level 2) ... 
107.9 Mbytes of cons cells used (47%)
74.0 Mbytes of vectors used (42%)
          used  (Mb) gc trigger  (Mb) max used  (Mb)
Ncells 2019808 107.9    4275172 228.4 13046794 696.8
Vcells 9695032  74.0   23297433 177.8 45502714 347.2
> 
> # compare parallel & stable
> print("Parallel vs. Stable")
[1] "Parallel vs. Stable"
> print(compareGraphs(parallel@graph, stable@graph))
tpr fpr tdr 
  1   0   1 
> 
> # compare parallel & true
> print("Parallel vs. True")
[1] "Parallel vs. True"
> print(compareGraphs(parallel@graph, rDAG))
        tpr         fpr         tdr 
0.993318486 0.002667062 0.250984806 
> 
> # compare original & true
> print("Original vs. True")
[1] "Original vs. True"
> print(compareGraphs(original@graph, rDAG))
        tpr         fpr         tdr 
0.993318486 0.002733188 0.246408840 
> 
> # clean up memory
> print("Cleaning up memory...")
[1] "Cleaning up memory..."
> rm(rDAG)
> rm(suffStat)
> rm(original)
> rm(stable)
> rm(parallel)
> rm(data)
> print(gc(verbose=TRUE))
Garbage collection 863 = 727+53+83 (level 2) ... 
25.8 Mbytes of cons cells used (14%)
4.8 Mbytes of vectors used (3%)
         used (Mb) gc trigger  (Mb) max used  (Mb)
Ncells 481478 25.8    3420137 182.7 13046794 696.8
Vcells 623682  4.8   18637946 142.2 45502714 347.2
> 


Resources Requested:
=========================================
mem=16gb
neednodes=1:ppn=8
nodes=1:ppn=8
vmem=16gb
walltime=03:00:00
=========================================

Resouces Used:
=========================================
cput=00:06:30
mem=6258568kb
vmem=7888932kb
walltime=00:08:02 
=========================================




Exit Status : [0]


